…
    ## 
    ## ℹ Use `spec()` to retrieve the full column specification for this data.
    ## ℹ Specify the column types or set `show_col_types = FALSE` to quiet this message.

``` r
staff_long <- staff %>%
  pivot_longer(cols = -faculty_type, names_to = "year") %>%
  mutate(value = as.numeric(value))

staff_long
```

    ## # A tibble: 55 × 3
    ##    faculty_type              year  value
    ##    <chr>                     <chr> <dbl>
    ##  1 Full-Time Tenured Faculty 1975   29  
    ##  2 Full-Time Tenured Faculty 1989   27.6
    ##  3 Full-Time Tenured Faculty 1993   25  
    ##  4 Full-Time Tenured Faculty 1995   24.8
    ##  5 Full-Time Tenured Faculty 1999   21.8
    ##  6 Full-Time Tenured Faculty 2001   20.3
    ##  7 Full-Time Tenured Faculty 2003   19.3
    ##  8 Full-Time Tenured Faculty 2005   17.8
    ##  9 Full-Time Tenured Faculty 2007   17.2
    ## 10 Full-Time Tenured Faculty 2009   16.8
    ## # … with 45 more rows
…
    ## ── Column specification ────────────────────────────────────────────────────────
    ## Delimiter: ","
    ## chr (1): country
    ## dbl (3): capture, aquaculture, total

    ## 
    ## ℹ Use `spec()` to retrieve the full column specification for this data.
    ## ℹ Specify the column types or set `show_col_types = FALSE` to quiet this message.

``` r
fisheries
```

    ## # A tibble: 216 × 4
    ##    country             capture aquaculture  total
    ##    <chr>                 <dbl>       <dbl>  <dbl>
    ##  1 Afghanistan            1000        1200   2200
    ##  2 Albania                7886         950   8836
    ##  3 Algeria               95000        1361  96361
    ##  4 American Samoa         3047          20   3067
    ##  5 Andorra                   0           0      0
    ##  6 Angola               486490         655 487145
    ##  7 Antigua and Barbuda    3000          10   3010
    ##  8 Argentina            755226        3673 758899
    ##  9 Armenia                3758       16381  20139
    ## 10 Aruba                   142           0    142
    ## # … with 206 more rows

``` r
big_fisheries <- fisheries %>% 
  filter(total > 500000)

big_fisheries
```

    ## # A tibble: 41 × 4
    ##    country     capture aquaculture    total
    ##    <chr>         <dbl>       <dbl>    <dbl>
    ##  1 Argentina    755226        3673   758899
    ##  2 Bangladesh  1674770     2203554  3878324
    ##  3 Brazil       705000      581230  1286230
    ##  4 Cambodia     629950      172500   802450
    ##  5 Canada       874727      200765  1075492
    ##  6 Chile       1829238     1050117  2879355
    ##  7 China      17800000    63700000 81500000
    ##  8 Denmark      670344       36337   706681
    ##  9 Ecuador      715495      451090  1166585
    ## 10 Egypt        335614     1370660  1706274
    ## # … with 31 more rows
…
<img src="lab-06_files/figure-gfm/unnamed-chunk-6-1.png" style="display: block; margin: auto;" />

### For my second attempted improvement I also did a log transformation of tons harvested.

<img src="lab-06_files/figure-gfm/unnamed-chunk-7-1.png" style="display: block; margin: auto;" />

### I dont really think either of these visualizations are that good. I think to make a better visualization I would need to think about what info I was trying to convey. I think a more interesting visualization would be a graph showing the breakdown of aquaculture vs capture in the 10 countries with the greatest fish harvest.

``` r
big_fisheries %>% 
  arrange(desc(total))
```

    ## # A tibble: 41 × 4
    ##    country        capture aquaculture    total
    ##    <chr>            <dbl>       <dbl>    <dbl>
    ##  1 China         17800000    63700000 81500000
    ##  2 Indonesia      6584419    16600000 23184419
    ##  3 India          5082332     5703002 10785334
    ##  4 Vietnam        2785940     3634531  6420471
    ##  5 United States  4931017      444369  5375386
    ##  6 Russia         4773413      173840  4947253
    ##  7 Japan          3275263     1067994  4343257
    ##  8 Philippines    2027992     2200914  4228906
    ##  9 Peru           3811802      100187  3911989
    ## 10 Bangladesh     1674770     2203554  3878324
    ## # … with 31 more rows
…
